#<SYMDEFS># ARM Linker, 5.01 [Build 43]: Last Updated: Thu Jun 22 00:55:38 2017
0x00000000 N __ARM_use_no_argv
0x00000000 A __main
0x00000008 A __scatterload
0x00000008 A __scatterload_rt2
0x0000001c A __scatterload_null
0x00000044 A __decompress
0x00000044 A __decompress1
0x000000a0 A __scatterload_copy
0x000000c8 A __scatterload_zeroinit
0x000000f5 T __rt_lib_init
0x000000f7 T __rt_lib_init_alloca_1
0x000000f7 T __rt_lib_init_argv_1
0x000000f7 T __rt_lib_init_atexit_1
0x000000f7 T __rt_lib_init_clock_1
0x000000f7 T __rt_lib_init_cpp_1
0x000000f7 T __rt_lib_init_exceptions_1
0x000000f7 T __rt_lib_init_fp_1
0x000000f7 T __rt_lib_init_fp_trap_1
0x000000f7 T __rt_lib_init_getenv_1
0x000000f7 T __rt_lib_init_heap_1
0x000000f7 T __rt_lib_init_lc_collate_1
0x000000f7 T __rt_lib_init_lc_ctype_1
0x000000f7 T __rt_lib_init_lc_monetary_1
0x000000f7 T __rt_lib_init_lc_numeric_1
0x000000f7 T __rt_lib_init_lc_time_1
0x000000f7 T __rt_lib_init_rand_1
0x000000f7 T __rt_lib_init_return
0x000000f7 T __rt_lib_init_signal_1
0x000000f7 T __rt_lib_init_stdio_1
0x000000f7 T __rt_lib_init_user_alloc_1
0x000000f9 T __rt_lib_shutdown
0x000000fb T __rt_lib_shutdown_fp_trap_1
0x000000fb T __rt_lib_shutdown_heap_1
0x000000fb T __rt_lib_shutdown_return
0x000000fb T __rt_lib_shutdown_signal_1
0x000000fb T __rt_lib_shutdown_stdio_1
0x000000fb T __rt_lib_shutdown_user_alloc_1
0x000000fc A __rt_entry
0x000000fc A __rt_entry_presh_1
0x000000fc A __rt_entry_sh
0x00000104 A __rt_entry_li
0x00000104 A __rt_entry_postsh_1
0x00000108 A __rt_entry_main
0x00000108 A __rt_entry_postli_1
0x00000130 A __rt_exit
0x00000134 A __rt_exit_ls
0x00000134 A __rt_exit_prels_1
0x00000138 A __rt_exit_exit
0x00000141 T main
0x00000145 T __user_initial_stackheap
0x00000148 A __user_setup_stackheap
0x000001a9 T exit
0x000001b4 A __user_libspace
0x000001b4 A __user_perproc_libspace
0x000001b4 A __user_perthread_libspace
0x000001c1 T _sys_exit
0x000001cc A __I$use$semihosting
0x000001cc A __use_no_semihosting_swi
0x000001d0 D __libspace_start
0x000001d0 A __semihosting_library_function
0x00000230 D __temporary_stack_top$libspace
0x8da0d000 D DALPROP_PropsInfo
0x8da0d010 D DALPROP_StructPtrs
0x8da0d0d4 D DALPROP_PropBin
0x8da0e1a0 D driver_list
0x8da0f0dc D cfg_bus_list
0x8da0f0e8 D cfg_slave_list
0x8da0f160 D cfg_master_list
0x8da0f1b4 D ul_cfg_clock_node_list
0x8da0f1c0 D cfg_tcsr_info
0x8da11898 D route_tree_root
0x8da1189c D ul_arb_master_list
0x8da118f0 D ul_arb_slave_list
0x8da11968 D ul_arb_clock_node_list
0x8da11974 D tfunnel_port_stm
0x8da11980 D devcfgSpmBspData
0x8da119d8 D devcfgSpmCmdSeqArray
0x8da11a2c D gSpmCmdDelay
0x8da11a30 D interrupt_config_map
0x8da120ec D pInterruptControllerConfigData
0x8da127e0 D HWIOBaseMap
0x8da128f8 D pm_wcn_proc_client_dev_deps_pll_sr2
0x8da12910 D pm_wcn_proc_client_dev_deps_rail_cx
0x8da12928 D pm_wcn_proc_client_dev_deps_rail_mx
0x8da12940 D pm_wcn_proc_client_dev_deps_wcn_core
0x8da12970 D pm_wcn_proc_client_dev_deps_wcn_core_clk
0x8da129d0 D pm_wcn_proc_client_dev_deps_wcn_pa
0x8da129e8 D pm_npa_wcn_pam_node_rsrcs
0x8da12ac0 D num_of_pm_wcn_nodes
0x8da12ac4 D pmic_npa_clk_remote_resources
0x8da12ad4 D pmic_npa_remote_clk
0x8da12adc D pmic_npa_ldo_remote_resources
0x8da12afc D pmic_npa_remote_ldo
0x8da12b04 D pmic_npa_smps_remote_resources
0x8da12b0c D pmic_npa_remote_smps
0x8da12b14 D GPIOCommonConfig_V6_VariantCommon
0x8da12b18 D GPIORegConfig_V6_VariantCommon
0x8da12b28 D pm8916_pm_wcn_proc_client_dev_deps_pll_sr2
0x8da12b40 D pm8916_pm_wcn_proc_client_dev_deps_rail_cx
0x8da12b58 D pm8916_pm_wcn_proc_client_dev_deps_rail_mx
0x8da12b70 D pm8916_pm_wcn_proc_client_dev_deps_wcn_core
0x8da12b88 D pm8916_pm_wcn_proc_client_dev_deps_wcn_core_clk
0x8da12bd0 D pm8916_pm_wcn_proc_client_dev_deps_wcn_pa
0x8da12be8 D pm8916_pm_npa_wcn_pam_node_rsrcs
0x8da12cc0 D pm8916_num_of_pm_wcn_nodes
0x8da12cc4 D pm8916_pmic_npa_clk_remote_resources
0x8da12cd4 D pm8916_pmic_npa_remote_clk
0x8da12cdc D pm8916_pmic_npa_ldo_remote_resources
0x8da12cf4 D pm8916_pmic_npa_remote_ldo
0x8da12cfc D pm8916_pmic_npa_smps_remote_resources
0x8da12d04 D pm8916_pmic_npa_remote_smps
0x8da12d0c D pm8916_GPIOCommonConfig_V6_VariantCommon
0x8da12d10 D pm8916_GPIORegConfig_V6_VariantCommon
0x8da12d20 D pm_pam_pll_sr2_a_ldo7
0x8da12e40 D pm_pam_pll_sr2_rails_info
0x8da12e48 D pm_pam_rail_cx_a_smps1
0x8da13334 D pm_pam_rail_cx_rails_info
0x8da1333c D pm_pam_rail_mx_a_ldo3
0x8da1372c D pm_pam_rail_mx_rails_info
0x8da13734 D pm_pam_wcn_core_a_ldo7
0x8da13a94 D pm_pam_wcn_core_a_ldo10
0x8da13df4 D pm_pam_wcn_core_rails_info
0x8da13e04 D pm_pam_wcn_core_clk_a_clk_buff4
0x8da13e94 D pm_pam_wcn_core_clk_a_clk_buff5
0x8da13f24 D pm_pam_wcn_core_clk_a_ldo7
0x8da14284 D pm_pam_wcn_core_clk_a_ldo10
0x8da145e4 D pm_pam_wcn_core_clk_rails_info
0x8da14604 D pm_pam_wcn_pa_a_ldo9
0x8da14964 D pm_pam_wcn_pa_rails_info
0x8da1496c D pm8916_pm_pam_pll_sr2_a_ldo7
0x8da14a8c D pm8916_pm_pam_pll_sr2_rails_info
0x8da14a94 D pm8916_pm_pam_rail_cx_a_smps1
0x8da14f80 D pm8916_pm_pam_rail_cx_rails_info
0x8da14f88 D pm8916_pm_pam_rail_mx_a_ldo3
0x8da15378 D pm8916_pm_pam_rail_mx_rails_info
0x8da15380 D pm8916_pm_pam_wcn_core_a_ldo7
0x8da156e0 D pm8916_pm_pam_wcn_core_rails_info
0x8da156e8 D pm8916_pm_pam_wcn_core_clk_a_clk_buff4
0x8da15778 D pm8916_pm_pam_wcn_core_clk_a_clk_buff5
0x8da15808 D pm8916_pm_pam_wcn_core_clk_a_ldo7
0x8da15b68 D pm8916_pm_pam_wcn_core_clk_rails_info
0x8da15b80 D pm8916_pm_pam_wcn_pa_a_ldo9
0x8da15ee0 D pm8916_pm_pam_wcn_pa_rails_info
0x8da15ee8 D u32cfg_bus_list_size
0x8da15eec D u32cfg_slave_list_size
0x8da15ef0 D u32cfg_master_list_size
0x8da15ef4 D u32ul_cfg_clk_node_list_size
0x8da15ef8 D u32ul_arb_master_list_size
0x8da15efc D u32ul_arb_slave_list_size
0x8da15f00 D u32ul_arb_clk_node_list_size
0x8da15f04 D hwevent_config_table
0x8da15f0c D table_size_array
0x8da15f10 D hwevent_addr_table
0x8da15f4c D addr_range_table_size
0x8da15f50 D SourceConfig
0x8da16068 D UARTClockConfig
0x8da162e8 D WCNClockConfig
0x8da16450 D WCNFMClockConfig
0x8da164a0 D WCNBT32MHZClockConfig
0x8da164f0 D ClockLogDefaultConfig
0x8da164f8 D ClockFlagInitConfig
0x8da16528 D ClockVRegLevelsMap
